A4,32.42,3.506
A5,41.386,3.563
A7,59.358,3.621
A8,68.299,3.655
A9,77.324,3.778
A10,86.315,3.798
A11,95.236,3.826
A12,104.261,3.848
B11,95.188,12.858
B9,77.301,12.719
B8,68.275,12.631
B7,59.375,12.624
B5,41.388,12.463
B4,32.386,12.42
B2,14.382,12.335
B1,5.327,12.436
C2,14.286,21.31
C3,23.288,21.352
C4,32.29,21.395
C5,41.292,21.438
C6,50.295,21.48
C7,59.297,21.523
C8,68.299,21.566
C9,77.301,21.608
C10,86.304,21.651
C11,95.306,21.694
C12,104.074,21.867
D12,104.054,30.969
D10,86.04,30.839
D9,77.096,30.806
D8,68.14,30.765
D6,50.17,30.734
D5,41.191,30.692
D4,32.225,30.631
D3,23.192,30.328
D2,14.221,30.495
D1,5.241,30.464
E1,5.183,39.501
E2,14.159,39.599
E3,23.115,39.538
E4,32.209,39.651
E5,41.107,39.694
E6,50.108,39.714
E7,59.04,39.754
E8,68.053,39.797
E9,77.052,39.908
E10,86.055,39.926
E11,94.978,39.982
E12,103.968,40.046
F12,103.861,48.973
F11,94.941,48.901
F10,85.995,48.893
F9,77.008,48.792
F8,67.968,48.85
F7,59.007,48.729
F6,50.001,48.742
F5,41.072,48.633
F4,32.044,48.682
F3,23.1,48.56
F2,14.05,48.516
F1,5.082,48.508
G1,5.025,57.36
G2,14.013,57.468
G3,22.971,57.466
G4,32.052,57.521
G5,40.985,57.597
G6,50.002,57.608
G7,58.933,57.625
G8,67.925,57.68
G9,76.911,57.765
G10,85.926,57.811
H12,103.73,66.838
H11,94.824,66.883
H10,85.782,66.796
H9,76.853,66.791
H8,67.873,66.701
H7,58.825,66.665
H6,49.918,66.673
H5,40.917,66.608
H4,32.004,66.51
H3,23.003,66.51
H2,13.932,66.457
H1,4.962,66.426
